INDEX VERSION 1.127+D:\EECS\PROGRAMMING PROJECT\Android\eclipse_ws_team\.metadata\.plugins\org.eclipse.jdt.core
30765161.index
159108533.index
4067265288.index
4108727661.index
163172794.index
1995173708.index
4041092966.index
3065916431.index
1498219845.index
305854171.index
1697886153.index
3133528496.index
3619614404.index
1299022128.index
3974580528.index
467426683.index
1664073008.index
1332573759.index
1486432592.index
4155206848.index
1418265840.index
1115467115.index
4264590965.index
3065416851.index
