info face="BrushScriptStd" size=32 bold=0 italic=0 charset="" unicode=0 stretchH=100 smooth=1 aa=1 padding=0,0,0,0 spacing=0,0
common lineHeight=32 base=15 scaleW=286 scaleH=32 pages=1 packed=0
page id=0 file="font-item.png"
chars count=10
char id=48   x=0     y=0     width=26     height=32     xoffset=0     yoffset=0    xadvance=24     page=0  chnl=0 
char id=49   x=26     y=0     width=26     height=32     xoffset=0     yoffset=0    xadvance=24     page=0  chnl=0 
char id=50   x=52     y=0     width=26     height=32     xoffset=0     yoffset=0    xadvance=24     page=0  chnl=0 
char id=51   x=78     y=0     width=26     height=32     xoffset=0     yoffset=0    xadvance=24     page=0  chnl=0 
char id=52   x=104     y=0     width=26     height=32     xoffset=0     yoffset=0    xadvance=24     page=0  chnl=0 
char id=53   x=130     y=0     width=26     height=32     xoffset=0     yoffset=0    xadvance=24     page=0  chnl=0 
char id=54   x=156     y=0     width=26     height=32     xoffset=0     yoffset=0    xadvance=24     page=0  chnl=0 
char id=55   x=182     y=0     width=26     height=32     xoffset=0     yoffset=0    xadvance=24     page=0  chnl=0 
char id=56   x=208     y=0     width=26     height=32     xoffset=0     yoffset=0    xadvance=24     page=0  chnl=0 
char id=57   x=234     y=0     width=26     height=32     xoffset=0     yoffset=0    xadvance=24     page=0  chnl=0 
char id=120   x=260     y=0     width=26     height=32     xoffset=0     yoffset=0    xadvance=24     page=0  chnl=0 